interactions:
- request:
    body: null
    headers:
      Accept:
      - '*/*'
      Accept-Encoding:
      - gzip, deflate, br
      Authorization:
      - Token 171be5abaf41e7856b423ad513df1ef8f867ff48
      Connection:
      - keep-alive
      User-Agent:
      - python-requests/2.32.2
    method: GET
    uri: http://localhost:8001/api/v2/objecttypes?page=1&pageSize=1
  response:
    body:
      string: '{"count":7,"next":"http://objecttypes-web:8000/api/v2/objecttypes?page=2&pageSize=1","previous":null,"results":[{"url":"http://objecttypes-web:8000/api/v2/objecttypes/ac1fa3f8-fb2a-4fcb-b715-d480aceeda10","uuid":"ac1fa3f8-fb2a-4fcb-b715-d480aceeda10","name":"Person
        (published)","namePlural":"Person (published)","description":"","dataClassification":"open","maintainerOrganization":"","maintainerDepartment":"","contactPerson":"","contactEmail":"","source":"","updateFrequency":"unknown","providerOrganization":"","documentationUrl":"","labels":{},"createdAt":"2024-07-26","modifiedAt":"2024-07-26","allowGeometry":true,"versions":["http://objecttypes-web:8000/api/v2/objecttypes/ac1fa3f8-fb2a-4fcb-b715-d480aceeda10/versions/1"]}]}'
    headers:
      Allow:
      - GET, POST, HEAD, OPTIONS
      Connection:
      - keep-alive
      Content-Length:
      - '733'
      Content-Type:
      - application/json
      Cross-Origin-Opener-Policy:
      - same-origin
      Date:
      - Tue, 22 Oct 2024 12:57:55 GMT
      Referrer-Policy:
      - same-origin
      Server:
      - nginx/1.27.0
      Vary:
      - origin
      X-Content-Type-Options:
      - nosniff
      X-Frame-Options:
      - DENY
    status:
      code: 200
      message: OK
version: 1
