interactions:
- request:
    body: null
    headers:
      Accept:
      - '*/*'
      Accept-Encoding:
      - gzip, deflate, br
      Authorization:
      - Token 171be5abaf41e7856b423ad513df1ef8f867ff48
      Connection:
      - keep-alive
      User-Agent:
      - python-requests/2.32.4
    method: GET
    uri: http://localhost:8001/api/v2/objecttypes?page=1&pageSize=1
  response:
    body:
      string: '{"count":8,"next":"http://objecttypes-web:8000/api/v2/objecttypes?page=2&pageSize=1","previous":null,"results":[{"url":"http://objecttypes-web:8000/api/v2/objecttypes/db4e8653-1f84-4df7-82bd-96787c52b298","uuid":"db4e8653-1f84-4df7-82bd-96787c52b298","name":"Children","namePlural":"Children","description":"","dataClassification":"open","maintainerOrganization":"","maintainerDepartment":"","contactPerson":"","contactEmail":"","source":"","updateFrequency":"unknown","providerOrganization":"","documentationUrl":"","labels":{},"createdAt":"2025-09-15","modifiedAt":"2025-09-15","allowGeometry":true,"versions":["http://objecttypes-web:8000/api/v2/objecttypes/db4e8653-1f84-4df7-82bd-96787c52b298/versions/1"]}]}'
    headers:
      Allow:
      - GET, POST, HEAD, OPTIONS
      Connection:
      - keep-alive
      Content-Length:
      - '713'
      Content-Type:
      - application/json
      Cross-Origin-Opener-Policy:
      - same-origin
      Date:
      - Mon, 22 Dec 2025 16:44:52 GMT
      Referrer-Policy:
      - same-origin
      Server:
      - nginx/1.29.1
      Vary:
      - origin
      X-Content-Type-Options:
      - nosniff
      X-Frame-Options:
      - DENY
    status:
      code: 200
      message: OK
version: 1
